<?xml version="1.0" encoding="UTF-8" standalone="no"?>
<svg
   xmlns:dc="http://purl.org/dc/elements/1.1/"
   xmlns:cc="http://creativecommons.org/ns#"
   xmlns:rdf="http://www.w3.org/1999/02/22-rdf-syntax-ns#"
   xmlns:svg="http://www.w3.org/2000/svg"
   xmlns="http://www.w3.org/2000/svg"
   xmlns:sodipodi="http://sodipodi.sourceforge.net/DTD/sodipodi-0.dtd"
   xmlns:inkscape="http://www.inkscape.org/namespaces/inkscape"
   viewBox="0 0 60 60.000002"
   version="1.1"
   id="svg10"
   sodipodi:docname="2020 mobilizon logo o.svg"
   width="60"
   height="60"
   inkscape:version="0.92.5 (2060ec1f9f, 2020-04-08)"
   inkscape:export-filename="/home/pouhiou/FramaCloud/Framasoft (2)/Communication/Mobilizon Comm/Logo Mobilizon/2020 mobilizon logo o.png"
   inkscape:export-xdpi="299"
   inkscape:export-ydpi="299">
  <metadata
     id="metadata16">
    <rdf:RDF>
      <cc:Work
         rdf:about="">
        <dc:format>image/svg+xml</dc:format>
        <dc:type
           rdf:resource="http://purl.org/dc/dcmitype/StillImage" />
        <dc:title>Fichier 2</dc:title>
      </cc:Work>
    </rdf:RDF>
  </metadata>
  <defs
     id="defs14" />
  <sodipodi:namedview
     pagecolor="#ffffff"
     bordercolor="#666666"
     borderopacity="1"
     objecttolerance="10"
     gridtolerance="10"
     guidetolerance="10"
     inkscape:pageopacity="0"
     inkscape:pageshadow="2"
     inkscape:window-width="1856"
     inkscape:window-height="1016"
     id="namedview12"
     showgrid="false"
     units="px"
     inkscape:pagecheckerboard="true"
     inkscape:zoom="5.5165967"
     inkscape:cx="-78.161311"
     inkscape:cy="48.943218"
     inkscape:window-x="64"
     inkscape:window-y="27"
     inkscape:window-maximized="1"
     inkscape:current-layer="svg10" />
  <title
     id="title2">Fichier 2</title>
  <rect
     style="opacity:1;fill:#fea72b;fill-opacity:1;stroke:none;stroke-opacity:1"
     id="rect4526"
     width="72.689743"
     height="72.871017"
     x="-5.8010583"
     y="-6.1636009" />
  <g
     id="f41ff3e5-47af-4c28-aa31-d18af43c1bbc"
     data-name="Calque 2"
     transform="matrix(1.1567104,0,0,1.1567104,14.627319,5.2563787)">
    <g
       id="abd61805-4d43-49d7-817d-d5c225158af3"
       data-name="header">
      <path
         d="m 26.58,27.06 q 0,8 -4.26,12.3 a 12.21,12.21 0 0 1 -9,3.42 12.21,12.21 0 0 1 -9,-3.42 Q 0,35.1 0,27.06 0,19.02 4.26,14.76 a 12.21,12.21 0 0 1 9,-3.42 12.21,12.21 0 0 1 9,3.42 q 4.32,4.24 4.32,12.3 z M 13.29,17 q -5.67,0 -5.67,10.06 0,10.06 5.67,10.08 Q 19,37.14 19,27.06 19,16.98 13.29,17 Z"
         style="fill:#3a384c;fill-opacity:1"
         id="path4"
         inkscape:connector-curvature="0" />
      <path
         d="m 9,6.78 a 7.37,7.37 0 0 1 -0.6,-3 7.37,7.37 0 0 1 0.6,-3 8.09,8.09 0 0 1 3.83,-0.78 7.05,7.05 0 0 1 3.69,0.84 7.37,7.37 0 0 1 0.6,3 7.37,7.37 0 0 1 -0.6,3 A 7.46,7.46 0 0 1 12.65,7.68 6.49,6.49 0 0 1 9,6.78 Z"
         style="fill:#ffffff"
         id="path6"
         inkscape:connector-curvature="0" />
    </g>
  </g>
</svg>
